program sudeliche;
{komentar}

//DECLARE
uses Crt;
var A: Integer;

  begin
    write('Napis cislo A: ');
    readLn(A);
    if (A MOD(2) = 0)
    then writeLn('Cislo je sude')
    else writeLn('Cislo je liche');
    readLn();
    end.